COMPSCIX 415.2 Homework 5/Midterm
…
## # A tibble: 1 x 4
##   min_year min_mo max_year max_mo
##      <int>  <int>    <int>  <int>
## 1     2000      1     2015     12

Question 2: How many cities are represented?

Answer: 46 cities are represented

txhousing %>%
  count(city)

## # A tibble: 46 x 2
##    city                      n
##    <chr>                 <int>
##  1 Abilene                 187
##  2 Amarillo                187
##  3 Arlington               187
##  4 Austin                  187
##  5 Bay Area                187
##  6 Beaumont                187
##  7 Brazoria County         187
##  8 Brownsville             187
##  9 Bryan-College Station   187
## 10 Collin County           187
## # ... with 36 more rows
…
Question 5: What proportion of sales is missing for each city?

Answer: Please see the results of query below

txhousing %>%
  mutate(missed_sales = is.na(sales)) %>%
  group_by(city, missed_sales) %>%
  summarise(count = n()) %>%
  mutate(prop = count / sum(count))

## # A tibble: 66 x 4
## # Groups:   city [46]
##    city            missed_sales count   prop
##    <chr>           <lgl>        <int>  <dbl>
##  1 Abilene         FALSE          187 1     
##  2 Amarillo        FALSE          187 1     
##  3 Arlington       FALSE          187 1     
##  4 Austin          FALSE          187 1     
##  5 Bay Area        FALSE          187 1     
##  6 Beaumont        FALSE          187 1     
##  7 Brazoria County FALSE          173 0.925 
##  8 Brazoria County TRUE            14 0.0749
##  9 Brownsville     FALSE          185 0.989 
## 10 Brownsville     TRUE             2 0.0107
## # ... with 56 more rows

Question 6: Look at only the cities and months with greater than 500 sales

txhousing_over500 <- txhousing %>%
  filter(sales > 500) 
txhousing_over500

## # A tibble: 1,883 x 9
##    city       year month sales   volume median listings inventory  date
##    <chr>     <int> <int> <dbl>    <dbl>  <dbl>    <dbl>     <dbl> <dbl>
##  1 Arlington  2000     8   507 60875199 103400     1417       3.5 2001.
##  2 Arlington  2001     5   536 69878959 114400     1592       3.7 2001.
##  3 Arlington  2001     6   534 67744182 108500     1627       3.8 2001.
##  4 Arlington  2001     8   505 65080743 113600     1616       3.7 2002.
##  5 Arlington  2002     5   503 67240236 116100     1741       3.9 2002.
##  6 Arlington  2002     7   509 66954143 119100     1925       4.4 2002.
##  7 Arlington  2003     5   502 67131982 118000     2544       5.9 2003.
##  8 Arlington  2003     7   524 73194692 123500     2799       6.5 2004.
##  9 Arlington  2003     8   531 72397143 123900     2801       6.4 2004.
## 10 Arlington  2004     5   527 72401436 118300     2922       6.5 2004.
## # ... with 1,873 more rows
…
## # A tibble: 1 x 4
##   min_year min_mo max_year max_mo
##      <int>  <int>    <int>  <int>
## 1     2000      1     2015     12

Question 2: How many cities are represented?

Answer: 46 cities are represented

txhousing %>%
  count(city)

## # A tibble: 46 x 2
##    city                      n
##    <chr>                 <int>
##  1 Abilene                 187
##  2 Amarillo                187
##  3 Arlington               187
##  4 Austin                  187
##  5 Bay Area                187
##  6 Beaumont                187
##  7 Brazoria County         187
##  8 Brownsville             187
##  9 Bryan-College Station   187
## 10 Collin County           187
## # ... with 36 more rows
…
Question 5: What proportion of sales is missing for each city?

Answer: Please see the results of query below

txhousing %>%
  mutate(missed_sales = is.na(sales)) %>%
  group_by(city, missed_sales) %>%
  summarise(count = n()) %>%
  mutate(prop = count / sum(count))

## # A tibble: 66 x 4
## # Groups:   city [46]
##    city            missed_sales count   prop
##    <chr>           <lgl>        <int>  <dbl>
##  1 Abilene         FALSE          187 1     
##  2 Amarillo        FALSE          187 1     
##  3 Arlington       FALSE          187 1     
##  4 Austin          FALSE          187 1     
##  5 Bay Area        FALSE          187 1     
##  6 Beaumont        FALSE          187 1     
##  7 Brazoria County FALSE          173 0.925 
##  8 Brazoria County TRUE            14 0.0749
##  9 Brownsville     FALSE          185 0.989 
## 10 Brownsville     TRUE             2 0.0107
## # ... with 56 more rows

Question 6: Look at only the cities and months with greater than 500 sales

txhousing_over500 <- txhousing %>%
  filter(sales > 500) 
txhousing_over500

## # A tibble: 1,883 x 9
##    city       year month sales   volume median listings inventory  date
##    <chr>     <int> <int> <dbl>    <dbl>  <dbl>    <dbl>     <dbl> <dbl>
##  1 Arlington  2000     8   507 60875199 103400     1417       3.5 2001.
##  2 Arlington  2001     5   536 69878959 114400     1592       3.7 2001.
##  3 Arlington  2001     6   534 67744182 108500     1627       3.8 2001.
##  4 Arlington  2001     8   505 65080743 113600     1616       3.7 2002.
##  5 Arlington  2002     5   503 67240236 116100     1741       3.9 2002.
##  6 Arlington  2002     7   509 66954143 119100     1925       4.4 2002.
##  7 Arlington  2003     5   502 67131982 118000     2544       5.9 2003.
##  8 Arlington  2003     7   524 73194692 123500     2799       6.5 2004.
##  9 Arlington  2003     8   531 72397143 123900     2801       6.4 2004.
## 10 Arlington  2004     5   527 72401436 118300     2922       6.5 2004.
## # ... with 1,873 more rows
…
